\relax 
\catcode`"\active
\catcode`-\active
\select@language{czech}
\@writefile{toc}{\select@language{czech}}
\@writefile{lof}{\select@language{czech}}
\@writefile{lot}{\select@language{czech}}
\@writefile{toc}{\contentsline {section}{\numberline {1}Specifikace \IeC {\'u}lohy}{3}}
\@writefile{toc}{\contentsline {subsection}{\numberline {1.1}C\IeC {\'\i }le a pou\IeC {\v z}it\IeC {\'\i } aplikace}{3}}
\@writefile{toc}{\contentsline {subsection}{\numberline {1.2}Funk\IeC {\v c}n\IeC {\'\i } po\IeC {\v z}adavky}{3}}
\@writefile{toc}{\contentsline {subsection}{\numberline {1.3}Po\IeC {\v z}adavky na u\IeC {\v z}ivatelsk\IeC {\'e} rozhran\IeC {\'\i }}{4}}
\@writefile{toc}{\contentsline {section}{\numberline {2}Anal\IeC {\'y}za zad\IeC {\'a}n\IeC {\'\i }}{4}}
\@writefile{toc}{\contentsline {section}{\numberline {3}Anal\IeC {\'y}za u\IeC {\v z}ivatelsk\IeC {\'e}ho rozhran\IeC {\'\i }}{5}}
\@writefile{lof}{\contentsline {figure}{\numberline {1}{\ignorespaces Uk\IeC {\'a}zka v\IeC {\'y}stupu aplikace Balsamiq Mockups. Zde jedna str\IeC {\'a}nka pr\IeC {\r u}vodce}}{7}}
\citation{bachelor_thesis}
\citation{java}
\citation{jni}
\citation{eclipse_platform}
\@writefile{toc}{\contentsline {section}{\numberline {4}Pou\IeC {\v z}it\IeC {\'e} technologie}{8}}
\@writefile{toc}{\contentsline {subsection}{\numberline {4.1}Java}{8}}
\@writefile{toc}{\contentsline {subsection}{\numberline {4.2}Eclipse}{8}}
\@writefile{toc}{\contentsline {subsubsection}{\numberline {4.2.1}Eclipse Platform}{8}}
\citation{eclipse_based_projects}
\citation{osgi}
\@writefile{toc}{\contentsline {paragraph}{OSGi}{10}}
\@writefile{toc}{\contentsline {subparagraph}{OSGi bundle}{10}}
\citation{equinox}
\citation{eclipse_plugin}
\@writefile{toc}{\contentsline {subparagraph}{Equinox}{11}}
\@writefile{toc}{\contentsline {paragraph}{Eclipse Plugin}{11}}
\@writefile{toc}{\contentsline {subparagraph}{Na\IeC {\v c}ten\IeC {\'\i } pluginu}{11}}
\citation{eclipse_fragment}
\citation{eclipse_feature}
\@writefile{toc}{\contentsline {subparagraph}{Obsah pluginu}{12}}
\@writefile{toc}{\contentsline {paragraph}{Eclipse Fragment}{12}}
\@writefile{toc}{\contentsline {paragraph}{Eclipse Feature}{12}}
\@writefile{toc}{\contentsline {paragraph}{Eclipse Extensions}{12}}
\citation{eclipse_rcp}
\citation{swt}
\@writefile{toc}{\contentsline {subsubsection}{\numberline {4.2.2}Eclipse RCP}{13}}
\@writefile{toc}{\contentsline {paragraph}{Pracovn\IeC {\'\i } prost\IeC {\v r}ed\IeC {\'\i }, perspektivy, pohledy, editory}{13}}
\@writefile{toc}{\contentsline {paragraph}{SWT}{13}}
\citation{java_2d}
\citation{jface}
\citation{jdt}
\citation{pde}
\@writefile{toc}{\contentsline {paragraph}{JFace}{14}}
\@writefile{toc}{\contentsline {subsubsection}{\numberline {4.2.3}Eclipse IDE}{14}}
\citation{bachelor_thesis}
\@writefile{toc}{\contentsline {section}{\numberline {5}Implementace}{15}}
\@writefile{toc}{\contentsline {subsection}{\numberline {5.1}Implementace prvk\IeC {\r u} u\IeC {\v z}ivatelsk\IeC {\'e}ho rozhran\IeC {\'\i }}{15}}
\@writefile{toc}{\contentsline {subsubsection}{\numberline {5.1.1}Hlavn\IeC {\'\i } okno aplikace}{15}}
\@writefile{toc}{\contentsline {subsubsection}{\numberline {5.1.2}Implementace pr\IeC {\r u}vodc\IeC {\r u}}{16}}
\@writefile{toc}{\contentsline {subsubsection}{\numberline {5.1.3}Spole\IeC {\v c}n\IeC {\'e} str\IeC {\'a}nky pr\IeC {\r u}vodc\IeC {\r u}}{17}}
\@writefile{toc}{\contentsline {subsection}{\numberline {5.2}Internacionalizace prvk\IeC {\r u} u\IeC {\v z}ivatelsk\IeC {\'e}ho rozhran\IeC {\'\i }}{17}}
\@writefile{toc}{\contentsline {subsection}{\numberline {5.3}Implementace samotn\IeC {\'e}ho m\IeC {\v e}\IeC {\v r}en\IeC {\'\i }}{18}}
\@writefile{toc}{\contentsline {subsubsection}{\numberline {5.3.1}Rozd\IeC {\v e}len\IeC {\'\i } \IeC {\'u}lohy do vl\IeC {\'a}ken}{19}}
\@writefile{toc}{\contentsline {paragraph}{UI vl\IeC {\'a}kno}{19}}
\@writefile{toc}{\contentsline {paragraph}{V\IeC {\'y}stupn\IeC {\'\i } vl\IeC {\'a}kno}{19}}
\@writefile{toc}{\contentsline {paragraph}{Vstupn\IeC {\'\i } vl\IeC {\'a}kno}{19}}
\@writefile{toc}{\contentsline {subsubsection}{\numberline {5.3.2}P\IeC {\v r}esnost m\IeC {\v e}\IeC {\v r}en\IeC {\'\i }}{19}}
\@writefile{toc}{\contentsline {subsubsection}{\numberline {5.3.3}P\IeC {\v r}\IeC {\'\i }stup k nativn\IeC {\'\i }m prvk\IeC {\r u}m syst\IeC {\'e}mu}{20}}
\@writefile{toc}{\contentsline {section}{\numberline {6}V\IeC {\'y}sledky testov\IeC {\'a}n\IeC {\'\i } zadavatelem}{22}}
\@writefile{toc}{\contentsline {section}{\numberline {7}Z\IeC {\'a}v\IeC {\v e}r}{23}}
\bibcite{bachelor_thesis}{1}
\bibcite{java}{2}
\bibcite{jni}{3}
\bibcite{eclipse_platform}{4}
\bibcite{eclipse_based_projects}{5}
\bibcite{osgi}{6}
\bibcite{equinox}{7}
\bibcite{eclipse_plugin}{8}
\bibcite{eclipse_fragment}{9}
\bibcite{eclipse_feature}{10}
\bibcite{eclipse_rcp}{11}
\bibcite{swt}{12}
\bibcite{java_2d}{13}
\bibcite{jface}{14}
\bibcite{jdt}{15}
\bibcite{pde}{16}
